{
    "appPageId": "051ea424-8314-b2ea-b3bc-09852e4be897",
    "appPageName": "confrimDeletepage",
    "componentName": "confrimdeletepageComponent",
    "selectorName": "bh-confrimdeletepage",
    "htmlFileName": "confrimdeletepage.template.html",
    "tsFileName": "confrimdeletepage.component.ts",
    "createDate": "2021-03-13T10:35:20.318Z",
    "bkd": {
        "designerHtml": "",
        "designerReference": {},
        "ts": ""
    }
}
