[
    {
        "id": "SSD_SERVICE_ID_sd_X0Xzz0yuee2HGhiq",
        "type": "tab",
        "createdDate": "2021-03-13T08:10:52.800Z",
        "relativeParentPath": "",
        "label": "incident",
        "disabled": false,
        "info": "",
        "generateNext": true,
        "serviceName": "incident"
    },
    {
        "id": "sd_A801uODWIWYfRYX2",
        "type": "HttpIn",
        "z": "SSD_SERVICE_ID_sd_X0Xzz0yuee2HGhiq",
        "viewType": "server",
        "nodeType": "start",
        "name": "add incident",
        "path": "/addincident",
        "uploadpath": "",
        "summary": "Add incident",
        "description": "API to add a new incident",
        "method": "post",
        "sequenceId": "",
        "consumes": "",
        "produces": "",
        "filetype": "path",
        "acceptFileUpload": false,
        "httpOptions": {
            "/addincident": {
                "post": {
                    "summary": "Add incident",
                    "description": "API to add a new incident",
                    "consumes": [],
                    "produces": [],
                    "parameters": [],
                    "responses": {}
                }
            }
        },
        "uploadFileOptions": {},
        "editableListData": {
            "responses": [],
            "params": [],
            "produces": [],
            "consumes": []
        },
        "inputs": 0,
        "outputs": 1,
        "category": "HTTP",
        "__ssdTypeInputs__": {
            "uploadpath": {
                "type": "str",
                "value": "",
                "nullable": "true",
                "nullableValue": "",
                "constant": false
            }
        },
        "__n_excludedFromValidation__": {},
        "x": 125,
        "y": 80,
        "wires": [
            [
                "sd_kgQFn9rMJ0TjQxFS"
            ]
        ],
        "generateNext": true,
        "serviceName": "incident",
        "functionName": "sd_A801uODWIWYfRYX2"
    },
    {
        "id": "sd_kgQFn9rMJ0TjQxFS",
        "type": "Script",
        "z": "SSD_SERVICE_ID_sd_X0Xzz0yuee2HGhiq",
        "viewType": "common",
        "nodeType": "flow",
        "name": "",
        "script": "const moment = require('moment');\n\nconsole.log(bh.input.body);\nvar newDate = moment(bh.input.body.date).format('YYYY-MM-DD hh:mm:ss');\nbh.local.query = `INSERT INTO incident(subject,description,priority,date_of_incident)\n VALUES('${bh.input.body.subject}','${bh.input.body.description}',\n '${bh.input.body.priority}','${newDate}');`\n\n console.log(bh.local.query);",
        "functionName": "sd_kgQFn9rMJ0TjQxFS",
        "category": "Function",
        "__n_excludedFromValidation__": {},
        "x": 245,
        "y": 80,
        "wires": [
            [
                "sd_3oIlg1vFkREpNzzl"
            ]
        ],
        "generateNext": false,
        "generated": true,
        "serviceName": "incident"
    },
    {
        "id": "sd_3oIlg1vFkREpNzzl",
        "type": "ExecuteSql",
        "z": "SSD_SERVICE_ID_sd_X0Xzz0yuee2HGhiq",
        "viewType": "server",
        "nodeType": "flow",
        "name": "",
        "databaseConfig": "sd_DhfRo8Gq1JcBm2LJ",
        "queryType": "",
        "resultMap": {
            "type": "bh.local",
            "value": "result"
        },
        "multipleQuery": "",
        "singleQuery": {
            "type": "bh.local",
            "value": "query"
        },
        "inputs": 1,
        "outputs": 1,
        "params": [],
        "paramMappingObj": {},
        "dbType": "mysql",
        "functionName": "sd_3oIlg1vFkREpNzzl",
        "category": "Storage",
        "__n_excludedFromValidation__": {},
        "x": 365,
        "y": 80,
        "wires": [
            [
                "sd_hE8l79eZ0F0emqw8"
            ]
        ],
        "generateNext": false,
        "generated": true,
        "serviceName": "incident"
    },
    {
        "id": "sd_hE8l79eZ0F0emqw8",
        "type": "HttpOut",
        "z": "SSD_SERVICE_ID_sd_X0Xzz0yuee2HGhiq",
        "viewType": "server",
        "nodeType": "flow",
        "name": "",
        "headers": {},
        "responseBody": {
            "type": "str",
            "value": "new incident is added into database",
            "ssd_typedInputField": true
        },
        "httpcode": {
            "type": "num",
            "value": 200,
            "ssd_typedInputField": true
        },
        "responseType": "txt",
        "responseMapping": {
            "status": 200,
            "txt": "\"new incident is added into database\"",
            "send": "\"new incident is added into database\""
        },
        "cookies": [],
        "inputs": 1,
        "outputs": 0,
        "editableListData": {
            "headers": []
        },
        "cookiesList": {},
        "switchStates": {
            "headers": "Map",
            "cookies": "Map"
        },
        "functionName": "sd_hE8l79eZ0F0emqw8",
        "category": "HTTP",
        "__n_excludedFromValidation__": {},
        "x": 485,
        "y": 80,
        "wires": [],
        "generateNext": false,
        "generated": true
    },
    {
        "id": "sd_fI36Yrk7BQ4HSsuL",
        "type": "HttpIn",
        "z": "SSD_SERVICE_ID_sd_X0Xzz0yuee2HGhiq",
        "viewType": "server",
        "nodeType": "start",
        "name": "get all incident",
        "path": "/getallincident",
        "uploadpath": "",
        "summary": "Incident list",
        "description": "API to get all the incident",
        "method": "get",
        "sequenceId": "",
        "consumes": "",
        "produces": "",
        "filetype": "path",
        "acceptFileUpload": false,
        "httpOptions": {
            "/getallincident": {
                "get": {
                    "summary": "Incident list",
                    "description": "API to get all the incident",
                    "consumes": [],
                    "produces": [],
                    "parameters": [],
                    "responses": {}
                }
            }
        },
        "uploadFileOptions": {},
        "editableListData": {
            "responses": [],
            "params": [],
            "produces": [],
            "consumes": []
        },
        "inputs": 0,
        "outputs": 1,
        "category": "HTTP",
        "__ssdTypeInputs__": {
            "uploadpath": {
                "type": "str",
                "value": "",
                "nullable": "true",
                "nullableValue": "",
                "constant": false
            }
        },
        "__n_excludedFromValidation__": {},
        "x": 125,
        "y": 200,
        "wires": [
            [
                "sd_yfg6dX944lHzePup"
            ]
        ],
        "generateNext": true,
        "serviceName": "incident",
        "functionName": "sd_fI36Yrk7BQ4HSsuL"
    },
    {
        "id": "sd_yfg6dX944lHzePup",
        "type": "Script",
        "z": "SSD_SERVICE_ID_sd_X0Xzz0yuee2HGhiq",
        "viewType": "common",
        "nodeType": "flow",
        "name": "",
        "script": "bh.local.query = `SELECT * FROM incident;`",
        "functionName": "sd_yfg6dX944lHzePup",
        "category": "Function",
        "__n_excludedFromValidation__": {},
        "x": 245,
        "y": 200,
        "wires": [
            [
                "sd_QCV8efdJYMG3wcdt"
            ]
        ],
        "generateNext": false,
        "generated": true
    },
    {
        "id": "sd_QCV8efdJYMG3wcdt",
        "type": "ExecuteSql",
        "z": "SSD_SERVICE_ID_sd_X0Xzz0yuee2HGhiq",
        "viewType": "server",
        "nodeType": "flow",
        "name": "",
        "databaseConfig": "sd_DhfRo8Gq1JcBm2LJ",
        "queryType": "",
        "resultMap": {
            "type": "bh.local",
            "value": "result"
        },
        "multipleQuery": "",
        "singleQuery": {
            "type": "bh.local",
            "value": "query"
        },
        "inputs": 1,
        "outputs": 1,
        "params": [],
        "paramMappingObj": {},
        "dbType": "mysql",
        "functionName": "sd_QCV8efdJYMG3wcdt",
        "category": "Storage",
        "__n_excludedFromValidation__": {},
        "x": 370,
        "y": 200,
        "wires": [
            [
                "sd_7a6VYbWa3zMdDVIB"
            ]
        ],
        "generateNext": false,
        "generated": true
    },
    {
        "id": "sd_7a6VYbWa3zMdDVIB",
        "type": "HttpOut",
        "z": "SSD_SERVICE_ID_sd_X0Xzz0yuee2HGhiq",
        "viewType": "server",
        "nodeType": "flow",
        "name": "",
        "headers": {},
        "responseBody": {
            "type": "bh.local",
            "value": "result",
            "ssd_typedInputField": true
        },
        "httpcode": {
            "type": "num",
            "value": 200,
            "ssd_typedInputField": true
        },
        "responseType": "obj",
        "responseMapping": {
            "status": 200,
            "obj": "bh.local.result",
            "send": "bh.local.result"
        },
        "cookies": [],
        "inputs": 1,
        "outputs": 0,
        "editableListData": {
            "headers": []
        },
        "cookiesList": {},
        "switchStates": {
            "headers": "Map",
            "cookies": "Map"
        },
        "functionName": "sd_7a6VYbWa3zMdDVIB",
        "category": "HTTP",
        "__n_excludedFromValidation__": {},
        "x": 490,
        "y": 198,
        "wires": [],
        "generateNext": false,
        "generated": true
    },
    {
        "id": "sd_AxXzxaFpSdR51YAG",
        "type": "HttpIn",
        "z": "SSD_SERVICE_ID_sd_X0Xzz0yuee2HGhiq",
        "viewType": "server",
        "nodeType": "start",
        "name": "update the incident",
        "path": "/updateincident",
        "uploadpath": "",
        "summary": "update Incident",
        "description": "API to update the incident",
        "method": "put",
        "sequenceId": "",
        "consumes": "",
        "produces": "",
        "filetype": "path",
        "acceptFileUpload": false,
        "httpOptions": {
            "/updateincident": {
                "put": {
                    "summary": "update Incident",
                    "description": "API to update the incident",
                    "consumes": [],
                    "produces": [],
                    "parameters": [],
                    "responses": {}
                }
            }
        },
        "uploadFileOptions": {},
        "editableListData": {
            "responses": [],
            "params": [],
            "produces": [],
            "consumes": []
        },
        "inputs": 0,
        "outputs": 1,
        "category": "HTTP",
        "__ssdTypeInputs__": {
            "uploadpath": {
                "type": "str",
                "value": "",
                "nullable": "true",
                "nullableValue": "",
                "constant": false
            }
        },
        "__n_excludedFromValidation__": {},
        "x": 125,
        "y": 300,
        "wires": [
            [
                "sd_z8SJpatL8ogCfloK"
            ]
        ],
        "generateNext": true,
        "serviceName": "incident",
        "functionName": "sd_AxXzxaFpSdR51YAG"
    },
    {
        "id": "sd_z8SJpatL8ogCfloK",
        "type": "Script",
        "z": "SSD_SERVICE_ID_sd_X0Xzz0yuee2HGhiq",
        "viewType": "common",
        "nodeType": "flow",
        "name": "",
        "script": "const moment = require('moment');\n\nconsole.log(bh.input.body);\nvar newDate = moment(bh.input.body.date).format('YYYY-MM-DD hh:mm:ss');\n\nbh.local.query = `UPDATE incident SET subject='${bh.input.body.subject}',\ndescription='${bh.input.body.description}',\npriority='${bh.input.body.priority}',\ndate_of_incident='${newDate}'\n where id='${bh.input.body.id}';`",
        "functionName": "sd_z8SJpatL8ogCfloK",
        "category": "Function",
        "__n_excludedFromValidation__": {},
        "x": 245,
        "y": 300,
        "wires": [
            [
                "sd_fzgV66jpVMtx82PH"
            ]
        ],
        "generateNext": false,
        "generated": true
    },
    {
        "id": "sd_fzgV66jpVMtx82PH",
        "type": "ExecuteSql",
        "z": "SSD_SERVICE_ID_sd_X0Xzz0yuee2HGhiq",
        "viewType": "server",
        "nodeType": "flow",
        "name": "",
        "databaseConfig": "sd_DhfRo8Gq1JcBm2LJ",
        "queryType": "",
        "resultMap": {
            "type": "bh.local",
            "value": "result"
        },
        "multipleQuery": "",
        "singleQuery": {
            "type": "bh.local",
            "value": "query"
        },
        "inputs": 1,
        "outputs": 1,
        "params": [],
        "paramMappingObj": {},
        "dbType": "mysql",
        "functionName": "sd_fzgV66jpVMtx82PH",
        "category": "Storage",
        "__n_excludedFromValidation__": {},
        "x": 370,
        "y": 300,
        "wires": [
            [
                "sd_lSYpmRRpDfuSs9g7"
            ]
        ],
        "generateNext": false,
        "generated": true
    },
    {
        "id": "sd_lSYpmRRpDfuSs9g7",
        "type": "HttpOut",
        "z": "SSD_SERVICE_ID_sd_X0Xzz0yuee2HGhiq",
        "viewType": "server",
        "nodeType": "flow",
        "name": "",
        "headers": {},
        "responseBody": {
            "type": "str",
            "value": "incident is updated",
            "ssd_typedInputField": true
        },
        "httpcode": {
            "type": "num",
            "value": 200,
            "ssd_typedInputField": true
        },
        "responseType": "txt",
        "responseMapping": {
            "status": 200,
            "txt": "\"incident is updated\"",
            "send": "\"incident is updated\""
        },
        "cookies": [],
        "inputs": 1,
        "outputs": 0,
        "editableListData": {
            "headers": []
        },
        "cookiesList": {},
        "switchStates": {
            "headers": "Map",
            "cookies": "Map"
        },
        "functionName": "sd_lSYpmRRpDfuSs9g7",
        "category": "HTTP",
        "__n_excludedFromValidation__": {},
        "x": 490,
        "y": 298,
        "wires": [],
        "generateNext": false,
        "generated": true
    },
    {
        "id": "sd_jIrWxkEycz0ahaiZ",
        "type": "HttpIn",
        "z": "SSD_SERVICE_ID_sd_X0Xzz0yuee2HGhiq",
        "viewType": "server",
        "nodeType": "start",
        "name": "delete incident",
        "path": "/deleteincident",
        "uploadpath": "",
        "summary": "Incident list",
        "description": "API to delete the incident",
        "method": "delete",
        "sequenceId": "",
        "consumes": "",
        "produces": "",
        "filetype": "path",
        "acceptFileUpload": false,
        "httpOptions": {
            "/deleteincident": {
                "delete": {
                    "summary": "Incident list",
                    "description": "API to delete the incident",
                    "consumes": [],
                    "produces": [],
                    "parameters": [],
                    "responses": {}
                }
            }
        },
        "editableListData": {
            "responses": [],
            "params": [],
            "produces": [],
            "consumes": []
        },
        "inputs": 0,
        "outputs": 1,
        "category": "HTTP",
        "__ssdTypeInputs__": {
            "uploadpath": {
                "type": "str",
                "value": "",
                "nullable": "true",
                "nullableValue": "",
                "constant": false
            }
        },
        "__n_excludedFromValidation__": {},
        "x": 125,
        "y": 400,
        "wires": [
            [
                "sd_nBRbRcGCfbEf6rfS"
            ]
        ],
        "generateNext": true,
        "serviceName": "incident",
        "functionName": "sd_jIrWxkEycz0ahaiZ"
    },
    {
        "id": "sd_nBRbRcGCfbEf6rfS",
        "type": "Script",
        "z": "SSD_SERVICE_ID_sd_X0Xzz0yuee2HGhiq",
        "viewType": "common",
        "nodeType": "flow",
        "name": "",
        "script": "console.log(bh.input)\nbh.local.query = `DELETE FROM incident where id=${bh.input.query.id};`;",
        "functionName": "sd_nBRbRcGCfbEf6rfS",
        "category": "Function",
        "__n_excludedFromValidation__": {},
        "x": 245,
        "y": 400,
        "wires": [
            [
                "sd_BmUBfCSsJLW3qc35"
            ]
        ],
        "generateNext": false,
        "generated": true
    },
    {
        "id": "sd_BmUBfCSsJLW3qc35",
        "type": "ExecuteSql",
        "z": "SSD_SERVICE_ID_sd_X0Xzz0yuee2HGhiq",
        "viewType": "server",
        "nodeType": "flow",
        "name": "",
        "databaseConfig": "sd_DhfRo8Gq1JcBm2LJ",
        "queryType": "",
        "resultMap": {
            "type": "bh.local",
            "value": "result"
        },
        "multipleQuery": "",
        "singleQuery": {
            "type": "bh.local",
            "value": "query"
        },
        "inputs": 1,
        "outputs": 1,
        "params": [],
        "paramMappingObj": {},
        "dbType": "mysql",
        "functionName": "sd_BmUBfCSsJLW3qc35",
        "category": "Storage",
        "__n_excludedFromValidation__": {},
        "x": 365,
        "y": 400,
        "wires": [
            [
                "sd_Oe2dk8cjjeZolog3"
            ]
        ],
        "generateNext": false,
        "generated": true
    },
    {
        "id": "sd_Oe2dk8cjjeZolog3",
        "type": "HttpOut",
        "z": "SSD_SERVICE_ID_sd_X0Xzz0yuee2HGhiq",
        "viewType": "server",
        "nodeType": "flow",
        "name": "",
        "headers": {},
        "responseBody": {
            "type": "str",
            "value": "incident remove",
            "ssd_typedInputField": true
        },
        "httpcode": {
            "type": "num",
            "value": 200,
            "ssd_typedInputField": true
        },
        "responseType": "txt",
        "responseMapping": {
            "status": 200,
            "txt": "\"incident remove\"",
            "send": "\"incident remove\""
        },
        "cookies": [],
        "inputs": 1,
        "outputs": 0,
        "editableListData": {
            "headers": []
        },
        "cookiesList": {},
        "switchStates": {
            "headers": "Map",
            "cookies": "Map"
        },
        "functionName": "sd_Oe2dk8cjjeZolog3",
        "category": "HTTP",
        "__n_excludedFromValidation__": {},
        "x": 490,
        "y": 398,
        "wires": [],
        "generateNext": false,
        "generated": true
    }
]
