{
    "appPageId": "8cf2be60-f2df-e033-39e0-762d2ce73604",
    "appPageName": "incidentlistpage",
    "componentName": "incidentlistpageComponent",
    "selectorName": "bh-incidentlistpage",
    "htmlFileName": "incidentlistpage.template.html",
    "tsFileName": "incidentlistpage.component.ts",
    "createDate": "2021-03-09T07:40:10.915Z",
    "bkd": {
        "designerHtml": "",
        "designerReference": {},
        "ts": ""
    }
}
