{
    "b6829484-fc7e-1888-a235-51f6d05cffb5": {
        "paletteKey": "NEUTRINOS_VIEW_navbarpage",
        "designerReference": [
            {
                "_key": "componentLabel",
                "_value": "navbarpage",
                "_type": "kv",
                "_attrDef": "p",
                "_useAsLabel": true
            },
            {
                "_key": "style",
                "_value": "",
                "_type": "kv",
                "_attrDef": "p"
            },
            {
                "_key": "class",
                "_value": "",
                "_type": "dav",
                "_attrDef": "p"
            }
        ]
    },
    "433a07c9-767f-f4e9-7e38-c8230c32f209": {
        "paletteKey": "FlexLayoutRow",
        "isCommented": "true",
        "designerReference": [
            {
                "_key": "componentLabel",
                "_value": "Row",
                "_type": "kv",
                "_attrDef": "p",
                "_useAsLabel": true
            },
            {
                "_key": "style",
                "_value": "margin: 20px",
                "_type": "kv",
                "_attrDef": "p"
            },
            {
                "_key": "class",
                "_value": "",
                "_type": "dav",
                "_attrDef": "p"
            },
            {
                "_key": "fxFlex",
                "_value": "",
                "_type": "kv",
                "_attrDef": "p"
            },
            {
                "_key": "fxLayoutGap",
                "_value": "30px",
                "_type": "kv",
                "_attrDef": "p"
            },
            {
                "_key": "wrap",
                "_value": "wrap",
                "_type": "a",
                "_attrDef": "p"
            },
            {
                "_key": "layoutAlign",
                "_value": "start",
                "_type": "a",
                "_attrDef": "p"
            },
            {
                "_key": "pLayoutAlign",
                "_value": "stretch",
                "_type": "a",
                "_attrDef": "p"
            },
            {
                "_key": "[fxShow]",
                "_value": "true",
                "_type": "kv",
                "_attrDef": "p"
            },
            {
                "_key": "[fxHide]",
                "_value": "false",
                "_type": "kv",
                "_attrDef": "p"
            }
        ],
        "ef2d81ca-6b30-17a9-8925-e1531db9b234": {
            "paletteKey": "FlexLayoutCol",
            "parentEditorKey": "433a07c9-767f-f4e9-7e38-c8230c32f209",
            "isCommented": "true",
            "designerReference": [
                {
                    "_key": "componentLabel",
                    "_value": "Column",
                    "_type": "kv",
                    "_attrDef": "p",
                    "_useAsLabel": true
                },
                {
                    "_key": "style",
                    "_value": "",
                    "_type": "kv",
                    "_attrDef": "p"
                },
                {
                    "_key": "class",
                    "_value": "",
                    "_type": "dav",
                    "_attrDef": "p"
                },
                {
                    "_key": "fxFlex",
                    "_value": "",
                    "_type": "kv",
                    "_attrDef": "p"
                },
                {
                    "_key": "fxLayoutGap",
                    "_value": "",
                    "_type": "kv",
                    "_attrDef": "p"
                },
                {
                    "_key": "wrap",
                    "_value": "wrap",
                    "_type": "a",
                    "_attrDef": "p"
                },
                {
                    "_key": "layoutAlign",
                    "_value": "start",
                    "_type": "a",
                    "_attrDef": "p"
                },
                {
                    "_key": "pLayoutAlign",
                    "_value": "center",
                    "_type": "a",
                    "_attrDef": "p"
                },
                {
                    "_key": "[fxShow]",
                    "_value": "true",
                    "_type": "kv",
                    "_attrDef": "p"
                },
                {
                    "_key": "[fxHide]",
                    "_value": "false",
                    "_type": "kv",
                    "_attrDef": "p"
                }
            ],
            "66b72153-ba7b-7136-299d-d7a0e3944216": {
                "paletteKey": "NG-button",
                "parentEditorKey": "ef2d81ca-6b30-17a9-8925-e1531db9b234",
                "isCommented": "true",
                "designerReference": [
                    {
                        "_key": "style",
                        "_value": "",
                        "_type": "kv",
                        "_attrDef": "p"
                    },
                    {
                        "_key": "class",
                        "_value": [
                            "text-wormwhite",
                            "btn-background-purple"
                        ],
                        "_type": "dav",
                        "_attrDef": "p"
                    },
                    {
                        "_key": "buttonname",
                        "_value": "View list",
                        "_type": "a",
                        "_attrDef": "p",
                        "_useAsLabel": true
                    },
                    {
                        "_key": "color",
                        "_value": "",
                        "_type": "kv",
                        "_attrDef": "p"
                    },
                    {
                        "_key": "(click)",
                        "_value": "",
                        "_type": "kv",
                        "_attrDef": "p"
                    },
                    {
                        "_key": "[disabled]",
                        "_value": "",
                        "_type": "kv",
                        "_attrDef": "p"
                    },
                    {
                        "_key": "[disableRipple]",
                        "_value": "",
                        "_type": "kv",
                        "_attrDef": "p"
                    },
                    {
                        "_key": "type",
                        "_value": "",
                        "_type": "kv",
                        "_attrDef": "p"
                    },
                    {
                        "_key": "routerLink",
                        "_value": "list",
                        "_type": "kv",
                        "_attrDef": "p"
                    }
                ]
            }
        }
    }
}
